%YAML 1.1
%TAG !u! tag:unity3d.com,2011:
--- !u!1 &2233212412975144911
GameObject:
  m_ObjectHideFlags: 0
  m_CorrespondingSourceObject: {fileID: 0}
  m_PrefabInstance: {fileID: 0}
  m_PrefabAsset: {fileID: 0}
  serializedVersion: 6
  m_Component:
  - component: {fileID: 1258628808572857108}
  - component: {fileID: 7977173467259676990}
  - component: {fileID: 5085819776973566889}
  m_Layer: 0
  m_Name: vfx_SpawnPortal
  m_TagString: Untagged
  m_Icon: {fileID: 0}
  m_NavMeshLayer: 0
  m_StaticEditorFlags: 0
  m_IsActive: 1
--- !u!4 &1258628808572857108
Transform:
  m_ObjectHideFlags: 0
  m_CorrespondingSourceObject: {fileID: 0}
  m_PrefabInstance: {fileID: 0}
  m_PrefabAsset: {fileID: 0}
  m_GameObject: {fileID: 2233212412975144911}
  serializedVersion: 2
  m_LocalRotation: {x: -0, y: -0, z: -0, w: 1}
  m_LocalPosition: {x: 0, y: 0, z: 0}
  m_LocalScale: {x: 1, y: 1, z: 1}
  m_ConstrainProportionsScale: 0
  m_Children: []
  m_Father: {fileID: 4566898619392459504}
  m_LocalEulerAnglesHint: {x: 0, y: 0, z: 0}
--- !u!2083052967 &7977173467259676990
VisualEffect:
  m_ObjectHideFlags: 0
  m_CorrespondingSourceObject: {fileID: 0}
  m_PrefabInstance: {fileID: 0}
  m_PrefabAsset: {fileID: 0}
  m_GameObject: {fileID: 2233212412975144911}
  m_Enabled: 1
  m_Asset: {fileID: 8926484042661614526, guid: 5b85b0ab05161814fad6c247e3bfbf0b, type: 3}
  m_InitialEventName: OnPlay
  m_InitialEventNameOverriden: 0
  m_StartSeed: 0
  m_ResetSeedOnPlay: 1
  m_AllowInstancing: 1
  m_ResourceVersion: 1
  m_PropertySheet:
    m_Float:
      m_Array: []
    m_Vector2f:
      m_Array: []
    m_Vector3f:
      m_Array: []
    m_Vector4f:
      m_Array: []
    m_Uint:
      m_Array: []
    m_Int:
      m_Array: []
    m_Matrix4x4f:
      m_Array: []
    m_AnimationCurve:
      m_Array: []
    m_Gradient:
      m_Array: []
    m_NamedObject:
      m_Array: []
    m_Bool:
      m_Array: []
--- !u!73398921 &5085819776973566889
VFXRenderer:
  serializedVersion: 1
  m_ObjectHideFlags: 0
  m_CorrespondingSourceObject: {fileID: 0}
  m_PrefabInstance: {fileID: 0}
  m_PrefabAsset: {fileID: 0}
  m_GameObject: {fileID: 2233212412975144911}
  m_Enabled: 1
  m_CastShadows: 0
  m_ReceiveShadows: 0
  m_DynamicOccludee: 1
  m_StaticShadowCaster: 0
  m_MotionVectors: 0
  m_LightProbeUsage: 0
  m_ReflectionProbeUsage: 0
  m_RayTracingMode: 0
  m_RayTraceProcedural: 0
  m_RenderingLayerMask: 1
  m_RendererPriority: 0
  m_StaticBatchInfo:
    firstSubMesh: 0
    subMeshCount: 0
  m_StaticBatchRoot: {fileID: 0}
  m_ProbeAnchor: {fileID: 0}
  m_LightProbeVolumeOverride: {fileID: 0}
  m_ScaleInLightmap: 1
  m_ReceiveGI: 1
  m_PreserveUVs: 0
  m_IgnoreNormalsForChartDetection: 0
  m_ImportantGI: 0
  m_StitchLightmapSeams: 1
  m_SelectedEditorRenderState: 3
  m_MinimumChartSize: 4
  m_AutoUVMaxDistance: 0.5
  m_AutoUVMaxAngle: 89
  m_LightmapParameters: {fileID: 0}
  m_SortingLayerID: 0
  m_SortingLayer: 0
  m_SortingOrder: 0
--- !u!1001 &6119353744001973470
PrefabInstance:
  m_ObjectHideFlags: 0
  serializedVersion: 2
  m_Modification:
    serializedVersion: 3
    m_TransformParent: {fileID: 0}
    m_Modifications:
    - target: {fileID: 563460174809933410, guid: 88143e1bb3bca5440b756cf3a18bc02c,
        type: 3}
      propertyPath: _tileType
      value: 4
      objectReference: {fileID: 0}
    - target: {fileID: 563460174809933410, guid: 88143e1bb3bca5440b756cf3a18bc02c,
        type: 3}
      propertyPath: <TileId>k__BackingField
      value: spawner_01
      objectReference: {fileID: 0}
    - target: {fileID: 563460174809933410, guid: 88143e1bb3bca5440b756cf3a18bc02c,
        type: 3}
      propertyPath: <IsFlyable>k__BackingField
      value: 1
      objectReference: {fileID: 0}
    - target: {fileID: 563460174809933410, guid: 88143e1bb3bca5440b756cf3a18bc02c,
        type: 3}
      propertyPath: <IsWalkable>k__BackingField
      value: 1
      objectReference: {fileID: 0}
    - target: {fileID: 563460174809933410, guid: 88143e1bb3bca5440b756cf3a18bc02c,
        type: 3}
      propertyPath: <IsSpawnerTile>k__BackingField
      value: 1
      objectReference: {fileID: 0}
    - target: {fileID: 1776198672127651594, guid: 88143e1bb3bca5440b756cf3a18bc02c,
        type: 3}
      propertyPath: m_Materials.Array.data[0]
      value: 
      objectReference: {fileID: 2100000, guid: 8380871e935021c4e93f70fcc98f8b07, type: 2}
    - target: {fileID: 6094886326174172335, guid: 88143e1bb3bca5440b756cf3a18bc02c,
        type: 3}
      propertyPath: m_Name
      value: Spawner tile
      objectReference: {fileID: 0}
    - target: {fileID: 7749760201891102254, guid: 88143e1bb3bca5440b756cf3a18bc02c,
        type: 3}
      propertyPath: m_LocalPosition.x
      value: 0
      objectReference: {fileID: 0}
    - target: {fileID: 7749760201891102254, guid: 88143e1bb3bca5440b756cf3a18bc02c,
        type: 3}
      propertyPath: m_LocalPosition.y
      value: 0
      objectReference: {fileID: 0}
    - target: {fileID: 7749760201891102254, guid: 88143e1bb3bca5440b756cf3a18bc02c,
        type: 3}
      propertyPath: m_LocalPosition.z
      value: 0
      objectReference: {fileID: 0}
    - target: {fileID: 7749760201891102254, guid: 88143e1bb3bca5440b756cf3a18bc02c,
        type: 3}
      propertyPath: m_LocalRotation.w
      value: 1
      objectReference: {fileID: 0}
    - target: {fileID: 7749760201891102254, guid: 88143e1bb3bca5440b756cf3a18bc02c,
        type: 3}
      propertyPath: m_LocalRotation.x
      value: 0
      objectReference: {fileID: 0}
    - target: {fileID: 7749760201891102254, guid: 88143e1bb3bca5440b756cf3a18bc02c,
        type: 3}
      propertyPath: m_LocalRotation.y
      value: 0
      objectReference: {fileID: 0}
    - target: {fileID: 7749760201891102254, guid: 88143e1bb3bca5440b756cf3a18bc02c,
        type: 3}
      propertyPath: m_LocalRotation.z
      value: 0
      objectReference: {fileID: 0}
    - target: {fileID: 7749760201891102254, guid: 88143e1bb3bca5440b756cf3a18bc02c,
        type: 3}
      propertyPath: m_LocalEulerAnglesHint.x
      value: 0
      objectReference: {fileID: 0}
    - target: {fileID: 7749760201891102254, guid: 88143e1bb3bca5440b756cf3a18bc02c,
        type: 3}
      propertyPath: m_LocalEulerAnglesHint.y
      value: 0
      objectReference: {fileID: 0}
    - target: {fileID: 7749760201891102254, guid: 88143e1bb3bca5440b756cf3a18bc02c,
        type: 3}
      propertyPath: m_LocalEulerAnglesHint.z
      value: 0
      objectReference: {fileID: 0}
    m_RemovedComponents: []
    m_RemovedGameObjects: []
    m_AddedGameObjects:
    - targetCorrespondingSourceObject: {fileID: 7749760201891102254, guid: 88143e1bb3bca5440b756cf3a18bc02c,
        type: 3}
      insertIndex: -1
      addedObject: {fileID: 1258628808572857108}
    m_AddedComponents: []
  m_SourcePrefab: {fileID: 100100000, guid: 88143e1bb3bca5440b756cf3a18bc02c, type: 3}
--- !u!4 &4566898619392459504 stripped
Transform:
  m_CorrespondingSourceObject: {fileID: 7749760201891102254, guid: 88143e1bb3bca5440b756cf3a18bc02c,
    type: 3}
  m_PrefabInstance: {fileID: 6119353744001973470}
  m_PrefabAsset: {fileID: 0}
